module gitlab.com/Varvara_R/sudoku-game

go 1.18

require (
	github.com/pkg/errors v0.9.1
	github.com/prometheus/client_golang v1.13.1
	github.com/sirupsen/logrus v1.9.0
)

require (
	github.com/beorn7/perks v1.0.1 // indirect
	github.com/cespare/xxhash/v2 v2.1.2 // indirect
	github.com/golang/protobuf v1.5.2 // indirect
	github.com/julienschmidt/httprouter v1.3.0 // indirect
	github.com/matttproud/golang_protobuf_extensions v1.0.1 // indirect
	github.com/prometheus/client_model v0.2.0 // indirect
	github.com/prometheus/common v0.37.0 // indirect
	github.com/prometheus/procfs v0.8.0 // indirect
	golang.org/x/sys v0.0.0-20220715151400-c0bba94af5f8 // indirect
	google.golang.org/protobuf v1.28.1 // indirect
)
